
    04 07 11 16 29 33 : 07    #2012096

    17 24 27 28 29 30 : 02    #2012095

    06 09 14 16 23 33 : 15    #2012094

    03 05 19 21 24 33 : 13    #2012093

    06 13 17 18 28 32 : 03    #2012092

    01 05 07 08 19 21 : 16    #2012091

    02 13 20 25 29 30 : 11    #2012090

    03 07 10 13 14 25 : 11    #2012089

    03 05 23 24 27 31 : 15    #2012088

    03 10 11 13 14 22 : 09    #2012087

    08 09 13 15 22 23 : 08    #2012086

    05 17 24 30 31 33 : 05    #2012085

    02 10 20 26 28 29 : 14    #2012084

    04 09 14 15 26 33 : 04    #2012083

    02 04 11 18 22 29 : 06    #2012082

    02 05 10 24 25 29 : 06    #2012081

    04 09 14 15 16 27 : 03    #2012080

    06 07 12 24 30 33 : 12    #2012079

    08 15 22 24 28 33 : 12    #2012078

    02 04 13 18 26 28 : 12    #2012077

    11 18 22 27 29 30 : 15    #2012076

    04 06 22 23 29 32 : 11    #2012075

    15 16 18 19 28 32 : 08    #2012074

    04 07 09 10 17 27 : 05    #2012073

    02 03 07 09 13 30 : 06    #2012072
        
    03 04 19 21 22 23 : 08    #2012071

    02 03 04 24 31 32 : 11    #2012070

    08 10 11 18 20 29 : 06    #2012069

    05 17 22 26 32 33 : 10    #2012068

    04 05 10 21 26 30 : 16    #2012067

    01 02 09 26 29 33 : 12    #2012066

    08 10 18 19 27 31 : 14    #2012065

    05 10 11 16 23 24 : 11    #2012064

    02 10 17 19 24 27 : 12    #2012063

    02 13 16 17 20 31 : 07    #2012062

    03 08 11 12 14 18 : 14    #2012061

    07 10 13 16 17 29 : 01    #2012060

    04 13 21 22 26 31 : 01    #2012059

    03 06 15 20 25 26 : 04    #2012058

    03 05 19 21 27 31 : 04    #2012057

    04 07 14 17 26 31 : 10    #2012056

    04 06 13 20 24 28 : 01    #2012055

    06 14 18 20 30 33 : 14    #2012054

    04 15 22 25 27 33 : 04    #2012053

    02 03 05 06 20 24 : 04    #2012052

    02 12 14 17 30 31 : 09    #2012051

    07 13 15 17 19 24 : 11    #2012050

    04 12 13 19 20 32 : 02    #2012049

    01 05 14 22 24 30 : 10    #2012048

    06 07 11 16 32 33 : 11    #2012047
    
    04 12 19 20 23 33 : 06    #2012046       

    08 11 20 21 27 30 : 09    #2012045

    06 09 10 14 22 25 : 03    #2012044

    02 09 11 21 26 33 : 03    #2012043

    05 06 11 19 24 28 : 16    #2012042

    08 11 15 20 24 32:  02    #2012041

    03 08 09 22 25 31 : 10    #2012040

    01 02 05 13 22 29 : 08    #2012039

    09 10 11 15 19 33 : 16    #2012038

    02 11 13 18 19 26 : 09    #2012037

    02 11 13 18 19 26:  09    #2012036

    09 11 12 21 24 26 : 05    #2012035

    02 03 08 23 32 33 : 16    #2012034

    02 03 15 16 17 27 : 04    #2012033

    01 02 10 17 22 24 : 04    #2012032

    04 16 22 24 27 31 : 03    #2012031

    09 10 17 18 21 31 : 08    #2012030
 
    04 07 15 25 26 28 : 03    #2012029
 
    10 15 20 21 28 30 : 11    #2012028

    04 16 22 25 30 31 : 12    #2012027

    03 07 09 15 24 25 : 16    #2012026

    03 08 09 17 25 27 : 06    #2012025

    04 12 19 21 25 28 : 13    #2012024

    05 09 15 23 24 33 : 02    #2012023

    04 08 12 24 26 27 : 04    #2012022

    01 15 16 18 22 30 : 03    #2012021

    03 08 12 18 23 29 : 11    #2012020

    07 14 18 20 22 30 : 16    #2012019

    03 05 06 22 26 32 : 15    #2012018

    06 09 14 19 25 28 : 10    #2012017

    02 05 12 17 22 25 : 08    #2012016

    01 03 06 10 21 23 : 15    #2012015

    01 02 05 16 28 30 : 12    #2012014

    06 08 24 29 30 32 : 13    #2012013

    15 17 18 20 23 27 : 01    #2012012

    04 14 15 16 20 26 : 05    #2012011

    01 03 13 19 25 26 : 10    #2012010

    04 16 24 26 27 33 : 11    #2012009

    01 12 20 23 24 29 : 08    #2012008

    10 17 19 27 28 32 : 04    #2012007

    02 22 25 29 32 33 : 08    #2012006

    07 09 18 27 31 33 : 06    #2012005

    01 05 10 11 21 23 : 16    #2012004

    03 06 08 24 29 31 : 09    #2012003

    02 03 07 09 10 32 : 13    #2012002

    01 04 05 09 15 17 : 06    #2012001

